mp03 – STA 9750 2024 Submission Material
…
      select(state, totalvotes) %>%
      distinct(),
    by = "state"
  ) %>%
  mutate(
    Winner = case_when(
      Democratic_votes > Republican_votes ~ "DEMOCRAT",
      Republican_votes > Democratic_votes ~ "REPUBLICAN",
      TRUE ~ "TIE"
    )
  ) %>%
  select(state, Democratic_votes, Republican_votes, Total_votes = totalvotes, Winner)
print(presidentvotes2016_summary)

# A tibble: 51 × 5
   state                Democratic_votes Republican_votes Total_votes Winner    
   <chr>                           <dbl>            <dbl>       <dbl> <chr>     
 1 ALABAMA                        729547          1318255     2123372 REPUBLICAN
 2 ALASKA                         116454           163387      318608 REPUBLICAN
 3 ARIZONA                       1161209          1252401     2573165 REPUBLICAN
 4 ARKANSAS                       380494           684872     1130635 REPUBLICAN
 5 CALIFORNIA                    8753788          4483810    14181595 DEMOCRAT  
 6 COLORADO                      1338870          1202484     2780220 DEMOCRAT  
 7 CONNECTICUT                    897572           673215     1644920 DEMOCRAT  
 8 DELAWARE                       235603           185127      441590 DEMOCRAT  
 9 DISTRICT OF COLUMBIA           282830            12723      312575 DEMOCRAT  
10 FLORIDA                       4504975          4617886     9420039 REPUBLICAN
# ℹ 41 more rows
…
